@startuml
!theme crt-amber

state Entre {
  state Piege {
  }

  state "Piege?" as CP <<choice>>
  CP -LEFT-> Piege : Salle est Piegee
}

state Combat {
  state "Hero\nAttaque" as HA {
  }
  state "Monstre\nAttaque" as MA {
  }
  state Resolution {
  }

  state "Monstre est Mort?" as CMM <<choice>>

  HA --> CMM
  CMM -LEFT-> MA : Le Monstre\nn'est pas mort
  CMM --> Resolution : Le Monstre\nest mort
  MA -UP-> HA
}

state Exploration {
}

state "Monstre est Present?" as CMP <<choice>>

[*] --> CP

CP --> CMP : Salle\nn'est pas Piegee
Piege --> CMP

CMP --> Exploration : Pas de Monstre
CMP -RIGHT-> HA : Monstre Present
Resolution --> Exploration

Exploration -UP-> CP

@enduml

